{
    "name": "west-openstack_controller",
    "version": "1.0.0",
    "author": "alexeysmovzh",
    "summary": "Puppet manifests for deploy OpenStack controller nodes.",
    "license": "MIT",
    "source": "https://bitbucket.org/alexey_smovzh/openstack_controller/src/master/",
    "project_page": "https://bitbucket.org/alexey_smovzh/openstack_controller/src/master/",
    "issues_url": "https://bitbucket.org/alexey_smovzh/openstack_controller/src/master/",
    "dependencies": [
    ],  
    "operatingsystem_support": [
      {
        "operatingsystem": "Debian",
        "operatingsystemrelease": [
          "10"
        ]
      }
    ],
    "requirements": [
      {
        "name": "puppet",
        "version_requirement": ">= 4.10.0 < 7.0.0"
      }
    ],
    "pdk-version": "1.18.1"
  
}