{
  "name": "controller-mariadb",
  "version": "1.0.0",
  "author": "Alexey Smovzh",
  "summary": "Installs, configures and manages MariaDB database service.",
  "license": "MIT",
  "source": "https://bitbucket.org/alexey_smovzh/openstack_controller/src/master/",
  "project_page": "https://bitbucket.org/alexey_smovzh/openstack_controller/src/master/",
  "issues_url": "https://bitbucket.org/alexey_smovzh/openstack_controller/src/master/",
  "dependencies": [
    { "name":"controller-apt","version_requirement":">= 1.0.0 < 2.0.0" }
  ],
  "data_provider": "hiera",
  "operatingsystem_support": [
    {
      "operatingsystem": "Debian",
      "operatingsystemrelease": [
        "10"
      ]
    }
  ],
  "requirements": [
    {
      "name": "puppet",
      "version_requirement": ">= 5.5.0 < 7.0.0"
    }
  ],
  "pdk-version": "1.18.1"
}
